#
# There is insufficient memory for the Java Runtime Environment to continue.
# Native memory allocation (malloc) failed to allocate 480096 bytes for Chunk::new
# Possible reasons:
#   The system is out of physical RAM or swap space
#   In 32 bit mode, the process size limit was hit
# Possible solutions:
#   Reduce memory load on the system
#   Increase physical memory or swap space
#   Check if swap backing store is full
#   Use 64 bit Java on a 64 bit OS
#   Decrease Java heap size (-Xmx/-Xms)
#   Decrease number of Java threads
#   Decrease Java thread stack sizes (-Xss)
#   Set larger code cache with -XX:ReservedCodeCacheSize=
# This output file may be truncated or incomplete.
#
#  Out of Memory Error (allocation.cpp:390), pid=2484, tid=0x0000000000001f44
#
# JRE version: Java(TM) SE Runtime Environment (8.0_181-b13) (build 1.8.0_181-b13)
# Java VM: Java HotSpot(TM) 64-Bit Server VM (25.181-b13 mixed mode windows-amd64 compressed oops)
# Failed to write core dump. Minidumps are not enabled by default on client versions of Windows
#

---------------  T H R E A D  ---------------

Current thread (0x00000000179eb800):  JavaThread "C2 CompilerThread1" daemon [_thread_in_native, id=8004, stack(0x0000000019120000,0x0000000019220000)]

Stack: [0x0000000019120000,0x0000000019220000]
[error occurred during error reporting (printing stack bounds), id 0xc0000005]

Native frames: (J=compiled Java code, j=interpreted, Vv=VM code, C=native code)


Current CompileTask:
C2:  23444 3705       4       java.net.URLStreamHandler::parseURL (1193 bytes)


---------------  P R O C E S S  ---------------

Java Threads: ( => current thread )
  0x000000001ebfe000 JavaThread "Image Fetcher 1" daemon [_thread_blocked, id=12020, stack(0x0000000021eb0000,0x0000000021fb0000)]
  0x000000001ebfb000 JavaThread "Image Fetcher 0" daemon [_thread_blocked, id=6468, stack(0x00000000218c0000,0x00000000219c0000)]
  0x000000001ec00800 JavaThread "AWT-Shutdown" [_thread_blocked, id=14920, stack(0x000000001fce0000,0x000000001fde0000)]
  0x000000001ebfd800 JavaThread "Okio Watchdog" daemon [_thread_blocked, id=2224, stack(0x0000000023d00000,0x0000000023e00000)]
  0x000000001ebfc000 JavaThread "OkHttp ConnectionPool" daemon [_thread_blocked, id=14944, stack(0x0000000023c00000,0x0000000023d00000)]
  0x000000001ebf9000 JavaThread "ForkJoinPool.commonPool-worker-1" daemon [_thread_blocked, id=12800, stack(0x0000000023700000,0x0000000023800000)]
  0x000000001ebff000 JavaThread "Exec Stream Pumper" daemon [_thread_in_native, id=1480, stack(0x0000000023400000,0x0000000023500000)]
  0x000000001ebff800 JavaThread "Exec Stream Pumper" daemon [_thread_in_native, id=14416, stack(0x0000000023300000,0x0000000023400000)]
  0x000000001b9c2000 JavaThread "UrlChecker-2" daemon [_thread_blocked, id=7636, stack(0x00000000215b0000,0x00000000216b0000)]
  0x000000001b9c4800 JavaThread "Exec Default Executor" daemon [_thread_in_native, id=6104, stack(0x00000000200e0000,0x00000000201e0000)]
  0x000000001b9c1800 JavaThread "pool-3-thread-1" [_thread_blocked, id=14808, stack(0x0000000021cb0000,0x0000000021db0000)]
  0x000000001b9bf000 JavaThread "pool-2-thread-1" [_thread_blocked, id=8912, stack(0x0000000021bb0000,0x0000000021cb0000)]
  0x000000001b9c0800 JavaThread "AWT-Windows" daemon [_thread_in_native, id=15336, stack(0x00000000219c0000,0x0000000021ac0000)]
  0x000000001b9c3000 JavaThread "Java2D Disposer" daemon [_thread_blocked, id=8960, stack(0x0000000021730000,0x0000000021830000)]
  0x000000001ac24000 JavaThread "org.eclipse.jetty.server.session.HashSessionManager@57459491Timer" daemon [_thread_blocked, id=11100, stack(0x000000001d700000,0x000000001d800000)]
  0x000000001ac20800 JavaThread "qtp345887595-19" [_thread_blocked, id=11992, stack(0x000000001d600000,0x000000001d700000)]
  0x000000001ac1d800 JavaThread "qtp345887595-18" [_thread_blocked, id=13432, stack(0x000000001d500000,0x000000001d600000)]
  0x000000001ac1d000 JavaThread "qtp345887595-17-acceptor-0@3afea652-ServerConnector@34395f7d{HTTP/1.1,[http/1.1]}{0.0.0.0:50001}" [_thread_in_native, id=6872, stack(0x000000001d400000,0x000000001d500000)]
  0x000000001ac1c800 JavaThread "qtp345887595-16" [_thread_in_native, id=6064, stack(0x000000001d300000,0x000000001d400000)]
  0x000000001ab79800 JavaThread "qtp345887595-15" [_thread_in_native, id=13784, stack(0x000000001d200000,0x000000001d300000)]
  0x000000001ab76800 JavaThread "qtp345887595-14" [_thread_in_native, id=6544, stack(0x000000001d100000,0x000000001d200000)]
  0x000000001ac52800 JavaThread "qtp345887595-13-acceptor-0@8443864-ServerConnector@683d71c{HTTP/1.1,[http/1.1]}{0.0.0.0:12954}" [_thread_in_native, id=8172, stack(0x000000001cf00000,0x000000001d000000)]
  0x000000001ac52000 JavaThread "qtp345887595-12" [_thread_in_native, id=13100, stack(0x000000001ce00000,0x000000001cf00000)]
  0x0000000019373000 JavaThread "Service Thread" daemon [_thread_blocked, id=15248, stack(0x0000000019720000,0x0000000019820000)]
  0x00000000179ef000 JavaThread "C1 CompilerThread2" daemon [_thread_blocked, id=1280, stack(0x0000000019220000,0x0000000019320000)]
=>0x00000000179eb800 JavaThread "C2 CompilerThread1" daemon [_thread_in_native, id=8004, stack(0x0000000019120000,0x0000000019220000)]
  0x00000000179e5800 JavaThread "C2 CompilerThread0" daemon [_thread_blocked, id=6060, stack(0x0000000019020000,0x0000000019120000)]
  0x00000000179e4000 JavaThread "Attach Listener" daemon [_thread_blocked, id=11408, stack(0x0000000018f20000,0x0000000019020000)]
  0x00000000179e3000 JavaThread "Signal Dispatcher" daemon [_thread_blocked, id=10156, stack(0x0000000018e20000,0x0000000018f20000)]
  0x00000000179c0000 JavaThread "Finalizer" daemon [_thread_blocked, id=13488, stack(0x0000000018c10000,0x0000000018d10000)]
  0x00000000179b4800 JavaThread "Reference Handler" daemon [_thread_blocked, id=3476, stack(0x0000000018b10000,0x0000000018c10000)]
  0x0000000002cba000 JavaThread "main" [_thread_in_native, id=9824, stack(0x0000000002ba0000,0x0000000002ca0000)]

Other Threads:
  0x000000001798d000 VMThread [stack: 0x0000000018a10000,0x0000000018b10000] [id=5552]
  0x00000000193d3000 WatcherThread [stack: 0x0000000019820000,0x0000000019920000] [id=900]

VM state:not at safepoint (normal execution)

VM Mutex/Monitor currently owned by a thread: None

Heap:
 PSYoungGen      total 219136K, used 4088K [0x00000000d5580000, 0x00000000e8180000, 0x0000000100000000)
  eden space 191488K, 2% used [0x00000000d5580000,0x00000000d597e358,0x00000000e1080000)
  from space 27648K, 0% used [0x00000000e1080000,0x00000000e1080000,0x00000000e2b80000)
  to   space 27648K, 0% used [0x00000000e6680000,0x00000000e6680000,0x00000000e8180000)
 ParOldGen       total 121344K, used 38032K [0x0000000080000000, 0x0000000087680000, 0x00000000d5580000)
  object space 121344K, 31% used [0x0000000080000000,0x0000000082524318,0x0000000087680000)
 Metaspace       used 34613K, capacity 35716K, committed 35968K, reserved 1083392K
  class space    used 4147K, capacity 4437K, committed 4480K, reserved 1048576K

Card table byte_map: [0x0000000012160000,0x0000000012570000] byte_map_base: 0x0000000011d60000

Marking Bits: (ParMarkBitMap*) 0x000000005af12d00
 Begin Bits: [0x0000000012c20000, 0x0000000014c20000)
 End Bits:   [0x0000000014c20000, 0x0000000016c20000)

Polling page: 0x0000000002930000

CodeCache: size=245760Kb used=13099Kb max_used=13099Kb free=232660Kb
 bounds [0x0000000002da0000, 0x0000000003a80000, 0x0000000011da0000]
 total_blobs=4007 nmethods=3209 adapters=709
 compilation: enabled

Compilation events (10 events):
Event: 22.952 Thread 0x00000000179ef000 3710       3       com.google.common.collect.ImmutableSet$Builder::copyIfNecessary (17 bytes)
Event: 22.953 Thread 0x00000000179ef000 nmethod 3710 0x0000000003a6c450 code [0x0000000003a6c5c0, 0x0000000003a6c828]
Event: 23.170 Thread 0x00000000179ef000 3711       3       java.awt.MouseInfo::getPointerInfo (143 bytes)
Event: 23.173 Thread 0x00000000179ef000 nmethod 3711 0x0000000003a6cc90 code [0x0000000003a6cfe0, 0x0000000003a6e8c8]
Event: 23.173 Thread 0x00000000179ef000 3714       3       java.awt.MouseInfo::areScreenDevicesIndependent (42 bytes)
Event: 23.173 Thread 0x00000000179ef000 nmethod 3714 0x0000000003a6f710 code [0x0000000003a6f8a0, 0x0000000003a6fcb8]
Event: 23.173 Thread 0x00000000179ef000 3715       3       java.util.Objects::requireNonNull (15 bytes)
Event: 23.174 Thread 0x00000000179ef000 nmethod 3715 0x0000000003a6fe50 code [0x0000000003a6ffc0, 0x0000000003a701e8]
Event: 23.174 Thread 0x00000000179ef000 3712  s    3       sun.awt.SunToolkit::getMouseInfoPeer (20 bytes)
Event: 23.174 Thread 0x00000000179ef000 nmethod 3712 0x0000000003a702d0 code [0x0000000003a70440, 0x0000000003a70890]

GC Heap History (10 events):
Event: 9.265 GC heap before
{Heap before GC invocations=10 (full 1):
 PSYoungGen      total 213504K, used 213491K [0x00000000d5580000, 0x00000000e4400000, 0x0000000100000000)
  eden space 198656K, 100% used [0x00000000d5580000,0x00000000e1780000,0x00000000e1780000)
  from space 14848K, 99% used [0x00000000e2b80000,0x00000000e39fceb0,0x00000000e3a00000)
  to   space 20480K, 0% used [0x00000000e1780000,0x00000000e1780000,0x00000000e2b80000)
 ParOldGen       total 61952K, used 24432K [0x0000000080000000, 0x0000000083c80000, 0x00000000d5580000)
  object space 61952K, 39% used [0x0000000080000000,0x00000000817dc020,0x0000000083c80000)
 Metaspace       used 29372K, capacity 29962K, committed 30208K, reserved 1075200K
  class space    used 3381K, capacity 3571K, committed 3584K, reserved 1048576K
Event: 9.288 GC heap after
Heap after GC invocations=10 (full 1):
 PSYoungGen      total 219136K, used 20469K [0x00000000d5580000, 0x00000000e4400000, 0x0000000100000000)
  eden space 198656K, 0% used [0x00000000d5580000,0x00000000d5580000,0x00000000e1780000)
  from space 20480K, 99% used [0x00000000e1780000,0x00000000e2b7d6c0,0x00000000e2b80000)
  to   space 14848K, 0% used [0x00000000e2b80000,0x00000000e2b80000,0x00000000e3a00000)
 ParOldGen       total 61952K, used 37894K [0x0000000080000000, 0x0000000083c80000, 0x00000000d5580000)
  object space 61952K, 61% used [0x0000000080000000,0x0000000082501888,0x0000000083c80000)
 Metaspace       used 29372K, capacity 29962K, committed 30208K, reserved 1075200K
  class space    used 3381K, capacity 3571K, committed 3584K, reserved 1048576K
}
Event: 21.829 GC heap before
{Heap before GC invocations=11 (full 1):
 PSYoungGen      total 219136K, used 141297K [0x00000000d5580000, 0x00000000e4400000, 0x0000000100000000)
  eden space 198656K, 60% used [0x00000000d5580000,0x00000000dcb7ed88,0x00000000e1780000)
  from space 20480K, 99% used [0x00000000e1780000,0x00000000e2b7d6c0,0x00000000e2b80000)
  to   space 14848K, 0% used [0x00000000e2b80000,0x00000000e2b80000,0x00000000e3a00000)
 ParOldGen       total 61952K, used 37894K [0x0000000080000000, 0x0000000083c80000, 0x00000000d5580000)
  object space 61952K, 61% used [0x0000000080000000,0x0000000082501888,0x0000000083c80000)
 Metaspace       used 34262K, capacity 35306K, committed 35456K, reserved 1081344K
  class space    used 4097K, capacity 4392K, committed 4480K, reserved 1048576K
Event: 21.845 GC heap after
Heap after GC invocations=11 (full 1):
 PSYoungGen      total 206336K, used 10159K [0x00000000d5580000, 0x00000000e8480000, 0x0000000100000000)
  eden space 191488K, 0% used [0x00000000d5580000,0x00000000d5580000,0x00000000e1080000)
  from space 14848K, 68% used [0x00000000e2b80000,0x00000000e356bdc8,0x00000000e3a00000)
  to   space 27648K, 0% used [0x00000000e1080000,0x00000000e1080000,0x00000000e2b80000)
 ParOldGen       total 61952K, used 52773K [0x0000000080000000, 0x0000000083c80000, 0x00000000d5580000)
  object space 61952K, 85% used [0x0000000080000000,0x0000000083389538,0x0000000083c80000)
 Metaspace       used 34262K, capacity 35306K, committed 35456K, reserved 1081344K
  class space    used 4097K, capacity 4392K, committed 4480K, reserved 1048576K
}
Event: 21.845 GC heap before
{Heap before GC invocations=12 (full 2):
 PSYoungGen      total 206336K, used 10159K [0x00000000d5580000, 0x00000000e8480000, 0x0000000100000000)
  eden space 191488K, 0% used [0x00000000d5580000,0x00000000d5580000,0x00000000e1080000)
  from space 14848K, 68% used [0x00000000e2b80000,0x00000000e356bdc8,0x00000000e3a00000)
  to   space 27648K, 0% used [0x00000000e1080000,0x00000000e1080000,0x00000000e2b80000)
 ParOldGen       total 61952K, used 52773K [0x0000000080000000, 0x0000000083c80000, 0x00000000d5580000)
  object space 61952K, 85% used [0x0000000080000000,0x0000000083389538,0x0000000083c80000)
 Metaspace       used 34262K, capacity 35306K, committed 35456K, reserved 1081344K
  class space    used 4097K, capacity 4392K, committed 4480K, reserved 1048576K
Event: 21.932 GC heap after
Heap after GC invocations=12 (full 2):
 PSYoungGen      total 206336K, used 0K [0x00000000d5580000, 0x00000000e8480000, 0x0000000100000000)
  eden space 191488K, 0% used [0x00000000d5580000,0x00000000d5580000,0x00000000e1080000)
  from space 14848K, 0% used [0x00000000e2b80000,0x00000000e2b80000,0x00000000e3a00000)
  to   space 27648K, 0% used [0x00000000e1080000,0x00000000e1080000,0x00000000e2b80000)
 ParOldGen       total 121344K, used 37471K [0x0000000080000000, 0x0000000087680000, 0x00000000d5580000)
  object space 121344K, 30% used [0x0000000080000000,0x0000000082497d48,0x0000000087680000)
 Metaspace       used 34261K, capacity 35304K, committed 35456K, reserved 1081344K
  class space    used 4097K, capacity 4391K, committed 4480K, reserved 1048576K
}
Event: 22.955 GC heap before
{Heap before GC invocations=13 (full 2):
 PSYoungGen      total 206336K, used 27523K [0x00000000d5580000, 0x00000000e8480000, 0x0000000100000000)
  eden space 191488K, 14% used [0x00000000d5580000,0x00000000d7060f60,0x00000000e1080000)
  from space 14848K, 0% used [0x00000000e2b80000,0x00000000e2b80000,0x00000000e3a00000)
  to   space 27648K, 0% used [0x00000000e1080000,0x00000000e1080000,0x00000000e2b80000)
 ParOldGen       total 121344K, used 37471K [0x0000000080000000, 0x0000000087680000, 0x00000000d5580000)
  object space 121344K, 30% used [0x0000000080000000,0x0000000082497d48,0x0000000087680000)
 Metaspace       used 34517K, capacity 35550K, committed 35712K, reserved 1085440K
  class space    used 4132K, capacity 4404K, committed 4480K, reserved 1048576K
Event: 22.959 GC heap after
Heap after GC invocations=13 (full 2):
 PSYoungGen      total 219136K, used 16856K [0x00000000d5580000, 0x00000000e8180000, 0x0000000100000000)
  eden space 191488K, 0% used [0x00000000d5580000,0x00000000d5580000,0x00000000e1080000)
  from space 27648K, 60% used [0x00000000e1080000,0x00000000e20f62e0,0x00000000e2b80000)
  to   space 27648K, 0% used [0x00000000e6680000,0x00000000e6680000,0x00000000e8180000)
 ParOldGen       total 121344K, used 37479K [0x0000000080000000, 0x0000000087680000, 0x00000000d5580000)
  object space 121344K, 30% used [0x0000000080000000,0x0000000082499d48,0x0000000087680000)
 Metaspace       used 34517K, capacity 35550K, committed 35712K, reserved 1085440K
  class space    used 4132K, capacity 4404K, committed 4480K, reserved 1048576K
}
Event: 22.959 GC heap before
{Heap before GC invocations=14 (full 3):
 PSYoungGen      total 219136K, used 16856K [0x00000000d5580000, 0x00000000e8180000, 0x0000000100000000)
  eden space 191488K, 0% used [0x00000000d5580000,0x00000000d5580000,0x00000000e1080000)
  from space 27648K, 60% used [0x00000000e1080000,0x00000000e20f62e0,0x00000000e2b80000)
  to   space 27648K, 0% used [0x00000000e6680000,0x00000000e6680000,0x00000000e8180000)
 ParOldGen       total 121344K, used 37479K [0x0000000080000000, 0x0000000087680000, 0x00000000d5580000)
  object space 121344K, 30% used [0x0000000080000000,0x0000000082499d48,0x0000000087680000)
 Metaspace       used 34517K, capacity 35550K, committed 35712K, reserved 1085440K
  class space    used 4132K, capacity 4404K, committed 4480K, reserved 1048576K
Event: 23.170 GC heap after
Heap after GC invocations=14 (full 3):
 PSYoungGen      total 219136K, used 0K [0x00000000d5580000, 0x00000000e8180000, 0x0000000100000000)
  eden space 191488K, 0% used [0x00000000d5580000,0x00000000d5580000,0x00000000e1080000)
  from space 27648K, 0% used [0x00000000e1080000,0x00000000e1080000,0x00000000e2b80000)
  to   space 27648K, 0% used [0x00000000e6680000,0x00000000e6680000,0x00000000e8180000)
 ParOldGen       total 121344K, used 38032K [0x0000000080000000, 0x0000000087680000, 0x00000000d5580000)
  object space 121344K, 31% used [0x0000000080000000,0x0000000082524318,0x0000000087680000)
 Metaspace       used 34517K, capacity 35550K, committed 35712K, reserved 1083392K
  class space    used 4132K, capacity 4404K, committed 4480K, reserved 1048576K
}

Deoptimization events (10 events):
Event: 13.575 Thread 0x0000000002cba000 Uncommon trap: reason=unstable_if action=reinterpret pc=0x000000000303c0a0 method=java.util.regex.Pattern$CharProperty.match(Ljava/util/regex/Matcher;ILjava/lang/CharSequence;)Z @ 21
Event: 13.625 Thread 0x0000000002cba000 Uncommon trap: reason=bimorphic action=maybe_recompile pc=0x0000000002f8a090 method=java.util.regex.Pattern$Curly.match(Ljava/util/regex/Matcher;ILjava/lang/CharSequence;)Z @ 19
Event: 13.625 Thread 0x0000000002cba000 Uncommon trap: reason=bimorphic action=maybe_recompile pc=0x0000000002f8a090 method=java.util.regex.Pattern$Curly.match(Ljava/util/regex/Matcher;ILjava/lang/CharSequence;)Z @ 19
Event: 14.582 Thread 0x0000000002cba000 Uncommon trap: reason=class_check action=maybe_recompile pc=0x0000000002fc6790 method=java.util.regex.Matcher.match(II)Z @ 86
Event: 14.582 Thread 0x0000000002cba000 Uncommon trap: reason=class_check action=maybe_recompile pc=0x0000000002fc6790 method=java.util.regex.Matcher.match(II)Z @ 86
Event: 21.281 Thread 0x000000001b9bf000 Uncommon trap: reason=unstable_if action=reinterpret pc=0x0000000002f2b98c method=atu.testrecorder.media.avi.TechSmithCodec.writeDelta24(Ljava/io/OutputStream;[I[IIIII)V @ 262
Event: 22.271 Thread 0x0000000002cba000 Uncommon trap: reason=class_check action=maybe_recompile pc=0x00000000039d7f04 method=org.openqa.selenium.json.Input.init()V @ 18
Event: 22.271 Thread 0x0000000002cba000 Uncommon trap: reason=class_check action=maybe_recompile pc=0x00000000039d7f04 method=org.openqa.selenium.json.Input.init()V @ 18
Event: 22.271 Thread 0x0000000002cba000 Uncommon trap: reason=class_check action=maybe_recompile pc=0x00000000039d7f04 method=org.openqa.selenium.json.Input.init()V @ 18
Event: 22.271 Thread 0x0000000002cba000 Uncommon trap: reason=class_check action=maybe_recompile pc=0x00000000039d7f04 method=org.openqa.selenium.json.Input.init()V @ 18

Classes redefined (0 events):
No events

Internal exceptions (10 events):
Event: 9.383 Thread 0x0000000002cba000 Exception <a 'java/lang/ClassNotFoundException': com/kms/katalon/core/webui/keyword/builtin/OpenBrowserKeywordCustomizer> (0x00000000d6ab6b98) thrown at [C:\re\workspace\8-2-build-windows-amd64-cygwin\jdk8u181\11358\hotspot\src\share\vm\classfile\systemDi
Event: 9.401 Thread 0x0000000002cba000 Exception <a 'java/lang/ClassNotFoundException': com/kms/katalon/core/webui/keyword/builtin/InternalSmartWaitGroovyWrapperBeanInfo> (0x00000000d6cb0af8) thrown at [C:\re\workspace\8-2-build-windows-amd64-cygwin\jdk8u181\11358\hotspot\src\share\vm\classfil
Event: 9.405 Thread 0x0000000002cba000 Exception <a 'java/lang/ClassNotFoundException': com/kms/katalon/core/webui/keyword/builtin/InternalSmartWaitGroovyWrapperCustomizer> (0x00000000d6d25678) thrown at [C:\re\workspace\8-2-build-windows-amd64-cygwin\jdk8u181\11358\hotspot\src\share\vm\classf
Event: 10.825 Thread 0x000000001b9c2000 Exception <a 'java/net/SocketTimeoutException': connect timed out> (0x00000000db1b1690) thrown at [C:\re\workspace\8-2-build-windows-amd64-cygwin\jdk8u181\11358\hotspot\src\share\vm\prims\jni.cpp, line 735]
Event: 11.354 Thread 0x000000001b9c2000 Exception <a 'java/net/SocketTimeoutException': connect timed out> (0x00000000db1b2b18) thrown at [C:\re\workspace\8-2-build-windows-amd64-cygwin\jdk8u181\11358\hotspot\src\share\vm\prims\jni.cpp, line 735]
Event: 12.176 Thread 0x0000000002cba000 Exception <a 'java/lang/IncompatibleClassChangeError': Found class java.lang.Object, but interface was expected> (0x00000000db006d10) thrown at [C:\re\workspace\8-2-build-windows-amd64-cygwin\jdk8u181\11358\hotspot\src\share\vm\interpreter\linkResolver.cp
Event: 12.224 Thread 0x0000000002cba000 Exception <a 'java/lang/NoSuchMethodError': java.lang.Object.lambda$or$2(Ljava/util/function/Predicate;Ljava/lang/Object;)Z> (0x00000000db015180) thrown at [C:\re\workspace\8-2-build-windows-amd64-cygwin\jdk8u181\11358\hotspot\src\share\vm\interpreter\lin
Event: 12.754 Thread 0x0000000002cba000 Exception <a 'java/lang/NoSuchMethodError': java.lang.Object.lambda$chars$0()Ljava/util/Spliterator$OfInt;> (0x00000000db6dec28) thrown at [C:\re\workspace\8-2-build-windows-amd64-cygwin\jdk8u181\11358\hotspot\src\share\vm\interpreter\linkResolver.cpp, li
Event: 22.469 Thread 0x0000000002cba000 Exception <a 'java/lang/NoSuchMethodError': java.lang.Object.lambda$getResponseFunction$0(Lorg/openqa/selenium/remote/InitialHandshakeResponse;)Lorg/openqa/selenium/remote/ProtocolHandshake$Result;> (0x00000000d5c6b0c0) thrown at [C:\re\workspace\8-2-buil
Event: 23.171 Thread 0x000000001b9bf000 Exception <a 'java/lang/OutOfMemoryError': OutOfMemoryError> (0x00000000d55c1cf8) thrown at [C:\re\workspace\8-2-build-windows-amd64-cygwin\jdk8u181\11358\hotspot\src\share\vm\prims\jni.cpp, line 735]

Events (10 events):
Event: 23.176 loading class org/openqa/selenium/remote/RemoteTouchScreen
Event: 23.176 loading class org/openqa/selenium/remote/RemoteTouchScreen done
Event: 23.177 loading class org/openqa/selenium/remote/mobile/RemoteNetworkConnection
Event: 23.177 loading class org/openqa/selenium/remote/mobile/RemoteNetworkConnection done
Event: 23.178 loading class com/kms/katalon/core/webui/driver/ExistingRemoteWebDriver
Event: 23.178 loading class com/kms/katalon/core/webui/driver/ExistingRemoteWebDriver done
Event: 23.179 loading class com/kms/katalon/selenium/driver/IExistingRemoteWebDriver
Event: 23.179 loading class com/kms/katalon/selenium/driver/IExistingRemoteWebDriver done
Event: 23.180 loading class org/openqa/selenium/safari/SafariDriver
Event: 23.180 loading class org/openqa/selenium/safari/SafariDriver done


Dynamic libraries:
0x00007ff7d6d10000 - 0x00007ff7d6d47000 	C:\Users\Allwyn\Downloads\Compressed\Katalon_Studio\Katalon_Studio_Windows_64-5.8.0\jre\bin\javaw.exe
0x00007ffc33890000 - 0x00007ffc33a85000 	C:\WINDOWS\SYSTEM32\ntdll.dll
0x00007ffc330d0000 - 0x00007ffc3318e000 	C:\WINDOWS\System32\KERNEL32.DLL
0x00007ffc31430000 - 0x00007ffc316f9000 	C:\WINDOWS\System32\KERNELBASE.dll
0x00007ffc324e0000 - 0x00007ffc3258c000 	C:\WINDOWS\System32\ADVAPI32.dll
0x00007ffc32940000 - 0x00007ffc329de000 	C:\WINDOWS\System32\msvcrt.dll
0x00007ffc32a90000 - 0x00007ffc32b2b000 	C:\WINDOWS\System32\sechost.dll
0x00007ffc32730000 - 0x00007ffc3285a000 	C:\WINDOWS\System32\RPCRT4.dll
0x00007ffc32ec0000 - 0x00007ffc33061000 	C:\WINDOWS\System32\USER32.dll
0x00007ffc312d0000 - 0x00007ffc312f2000 	C:\WINDOWS\System32\win32u.dll
0x00007ffc337f0000 - 0x00007ffc3381b000 	C:\WINDOWS\System32\GDI32.dll
0x00007ffc311c0000 - 0x00007ffc312cb000 	C:\WINDOWS\System32\gdi32full.dll
0x00007ffc31300000 - 0x00007ffc3139d000 	C:\WINDOWS\System32\msvcp_win.dll
0x00007ffc31010000 - 0x00007ffc31110000 	C:\WINDOWS\System32\ucrtbase.dll
0x00007ffc23af0000 - 0x00007ffc23d8a000 	C:\WINDOWS\WinSxS\amd64_microsoft.windows.common-controls_6595b64144ccf1df_6.0.19041.1110_none_60b5254171f9507e\COMCTL32.dll
0x00007ffc32e90000 - 0x00007ffc32ec0000 	C:\WINDOWS\System32\IMM32.DLL
0x000000005a340000 - 0x000000005a412000 	C:\Users\Allwyn\Downloads\Compressed\Katalon_Studio\Katalon_Studio_Windows_64-5.8.0\jre\bin\msvcr100.dll
0x000000005a6f0000 - 0x000000005af92000 	C:\Users\Allwyn\Downloads\Compressed\Katalon_Studio\Katalon_Studio_Windows_64-5.8.0\jre\bin\server\jvm.dll
0x00007ffc32590000 - 0x00007ffc32598000 	C:\WINDOWS\System32\PSAPI.DLL
0x00007ffc23d90000 - 0x00007ffc23d9a000 	C:\WINDOWS\SYSTEM32\VERSION.dll
0x00007ffc22df0000 - 0x00007ffc22e17000 	C:\WINDOWS\SYSTEM32\WINMM.dll
0x00007ffc2ef10000 - 0x00007ffc2ef19000 	C:\WINDOWS\SYSTEM32\WSOCK32.dll
0x00007ffc32d90000 - 0x00007ffc32dfb000 	C:\WINDOWS\System32\WS2_32.dll
0x000000005a6e0000 - 0x000000005a6ef000 	C:\Users\Allwyn\Downloads\Compressed\Katalon_Studio\Katalon_Studio_Windows_64-5.8.0\jre\bin\verify.dll
0x000000005a6b0000 - 0x000000005a6d9000 	C:\Users\Allwyn\Downloads\Compressed\Katalon_Studio\Katalon_Studio_Windows_64-5.8.0\jre\bin\java.dll
0x000000005a690000 - 0x000000005a6a6000 	C:\Users\Allwyn\Downloads\Compressed\Katalon_Studio\Katalon_Studio_Windows_64-5.8.0\jre\bin\zip.dll
0x00007ffc318b0000 - 0x00007ffc31fef000 	C:\WINDOWS\System32\SHELL32.dll
0x00007ffc2f020000 - 0x00007ffc2f7b0000 	C:\WINDOWS\SYSTEM32\windows.storage.dll
0x00007ffc32180000 - 0x00007ffc324d5000 	C:\WINDOWS\System32\combase.dll
0x00007ffc309d0000 - 0x00007ffc309fc000 	C:\WINDOWS\SYSTEM32\Wldp.dll
0x00007ffc32c00000 - 0x00007ffc32cae000 	C:\WINDOWS\System32\SHCORE.dll
0x00007ffc33070000 - 0x00007ffc330c5000 	C:\WINDOWS\System32\shlwapi.dll
0x00007ffc30ec0000 - 0x00007ffc30edf000 	C:\WINDOWS\SYSTEM32\profapi.dll
0x000000005a670000 - 0x000000005a68a000 	C:\Users\Allwyn\Downloads\Compressed\Katalon_Studio\Katalon_Studio_Windows_64-5.8.0\jre\bin\net.dll
0x00007ffc306e0000 - 0x00007ffc3074a000 	C:\WINDOWS\system32\mswsock.dll
0x000000005a650000 - 0x000000005a661000 	C:\Users\Allwyn\Downloads\Compressed\Katalon_Studio\Katalon_Studio_Windows_64-5.8.0\jre\bin\nio.dll
0x000000005a5f0000 - 0x000000005a5fd000 	C:\Users\Allwyn\Downloads\Compressed\Katalon_Studio\Katalon_Studio_Windows_64-5.8.0\jre\bin\management.dll
0x000000005a620000 - 0x000000005a644000 	C:\Users\Allwyn\Downloads\Compressed\Katalon_Studio\Katalon_Studio_Windows_64-5.8.0\jre\bin\sunec.dll
0x00007ffc30390000 - 0x00007ffc303cb000 	C:\WINDOWS\SYSTEM32\IPHLPAPI.DLL
0x00007ffc33630000 - 0x00007ffc33638000 	C:\WINDOWS\System32\NSI.dll
0x00007ffc2b5b0000 - 0x00007ffc2b5c7000 	C:\WINDOWS\SYSTEM32\dhcpcsvc6.DLL
0x00007ffc2b590000 - 0x00007ffc2b5ad000 	C:\WINDOWS\SYSTEM32\dhcpcsvc.DLL
0x00007ffc30420000 - 0x00007ffc304ec000 	C:\WINDOWS\SYSTEM32\DNSAPI.dll
0x00007ffc30880000 - 0x00007ffc30898000 	C:\WINDOWS\SYSTEM32\CRYPTSP.dll
0x00007ffc30000000 - 0x00007ffc30034000 	C:\WINDOWS\system32\rsaenh.dll
0x00007ffc30f80000 - 0x00007ffc30fa7000 	C:\WINDOWS\System32\bcrypt.dll
0x00007ffc30e80000 - 0x00007ffc30eae000 	C:\WINDOWS\SYSTEM32\USERENV.dll
0x00007ffc313a0000 - 0x00007ffc31423000 	C:\WINDOWS\System32\bcryptprimitives.dll
0x00007ffc30870000 - 0x00007ffc3087c000 	C:\WINDOWS\SYSTEM32\CRYPTBASE.dll
0x000000005a600000 - 0x000000005a60b000 	C:\Users\Allwyn\Downloads\Compressed\Katalon_Studio\Katalon_Studio_Windows_64-5.8.0\jre\bin\sunmscapi.dll
0x00007ffc31750000 - 0x00007ffc318a6000 	C:\WINDOWS\System32\CRYPT32.dll
0x000000005a450000 - 0x000000005a5e9000 	C:\Users\Allwyn\Downloads\Compressed\Katalon_Studio\Katalon_Studio_Windows_64-5.8.0\jre\bin\awt.dll
0x00007ffc32b30000 - 0x00007ffc32bfd000 	C:\WINDOWS\System32\OLEAUT32.dll
0x00007ffc2e1a0000 - 0x00007ffc2e230000 	C:\WINDOWS\SYSTEM32\apphelp.dll
0x00007ffc2e800000 - 0x00007ffc2e82f000 	C:\WINDOWS\system32\DWMAPI.DLL
0x00007ffc2e5a0000 - 0x00007ffc2e63e000 	C:\WINDOWS\system32\uxtheme.dll
0x00007ffc0e410000 - 0x00007ffc0e535000 	C:\WINDOWS\system32\opengl32.dll
0x00007ffc22220000 - 0x00007ffc2224c000 	C:\WINDOWS\SYSTEM32\GLU32.dll
0x00007ffc32610000 - 0x00007ffc32725000 	C:\WINDOWS\System32\MSCTF.dll
0x00007ffc31ff0000 - 0x00007ffc3211a000 	C:\WINDOWS\System32\ole32.dll
0x00007ffc2f910000 - 0x00007ffc2f922000 	C:\WINDOWS\SYSTEM32\kernel.appcore.dll
0x00007ffc24810000 - 0x00007ffc2481a000 	C:\Windows\System32\rasadhlp.dll
0x00007ffc24920000 - 0x00007ffc2499f000 	C:\WINDOWS\System32\fwpuclnt.dll
0x00007ffc2c400000 - 0x00007ffc2c4ac000 	C:\WINDOWS\SYSTEM32\TextShaping.dll
0x00007ffc1a460000 - 0x00007ffc1a477000 	C:\WINDOWS\system32\napinsp.dll
0x00007ffc1a440000 - 0x00007ffc1a45b000 	C:\WINDOWS\system32\pnrpnsp.dll
0x00007ffc2ae00000 - 0x00007ffc2ae15000 	C:\WINDOWS\system32\wshbth.dll
0x00007ffc2bdd0000 - 0x00007ffc2bded000 	C:\WINDOWS\system32\NLAapi.dll
0x00007ffc1a420000 - 0x00007ffc1a432000 	C:\WINDOWS\System32\winrnr.dll

VM Arguments:
jvm_args: -Dgroovy.home=/C:/Users/Allwyn/Downloads/Compressed/Katalon_Studio/Katalon_Studio_Windows_64-5.8.0/plugins/org.codehaus.groovy_2.4.7.xx-201611170128-e46/ -Xmx2048m -Dfile.encoding=UTF-8 
java_command: org.codehaus.groovy.tools.GroovyStarter --classpath C:\Users\Allwyn\Documents\Amaze Test\amaze_automation\Include\scripts\groovy;C:\Users\Allwyn\Documents\Amaze Test\amaze_automation\Keywords;C:\Users\Allwyn\Documents\Amaze Test\amaze_automation\Libs;C:\Users\Allwyn\Documents\Amaze Test\amaze_automation\Test Listeners;C:\Users\Allwyn\Documents\Amaze Test\amaze_automation\Drivers\animal-sniffer-annotations-1.14.jar;C:\Users\Allwyn\Documents\Amaze Test\amaze_automation\Drivers\byte-buddy-1.8.15.jar;C:\Users\Allwyn\Documents\Amaze Test\amaze_automation\Drivers\checker-compat-qual-2.0.0.jar;C:\Users\Allwyn\Documents\Amaze Test\amaze_automation\Drivers\commons-exec-1.3.jar;C:\Users\Allwyn\Documents\Amaze Test\amaze_automation\Drivers\error_prone_annotations-2.1.3.jar;C:\Users\Allwyn\Documents\Amaze Test\amaze_automation\Drivers\guava-25.0-jre.jar;C:\Users\Allwyn\Documents\Amaze Test\amaze_automation\Drivers\j2objc-annotations-1.1.jar;C:\Users\Allwyn\Documents\Amaze Test\amaze_automation\Drivers\jsr305-1.3.9.jar;C:\Users\Allwyn\Documents\Amaze Test\amaze_automation\Drivers\ngwebdriver-1.1.5.jar;C:\Users\Allwyn\Documents\Amaze Test\amaze_automation\Drivers\okhttp-3.11.0.jar;C:\Users\Allwyn\Documents\Amaze Test\amaze_automation\Drivers\okio-1.14.0.jar;C:\Users\Allwyn\Documents\Amaze Test\amaze_automation\Drivers\selenium-api-3.141.59.jar;C:\Users\Allwyn\Documents\Amaze Test\amaze_automation\Drivers\selenium-chrome-driver-3.141.59.jar;C:\Users\Allwyn\Documents\Amaze Test\amaze_automation\Drivers\selenium-edge-driver-3.141.59.jar;C:\Users\Allwyn\Documents\Amaze Test\amaze_automation\Drivers\selenium-firefox-driver-3.141.59.jar;C:\Users\Allwyn\Documents\Amaze Test\amaze_automation\Drivers\selenium-ie-driver-3.141.59.jar;C:\Users\Allwyn\Documents\Amaze Test\amaze_automation\Drivers\selenium-java-3.141.59.jar;C:\Users\Allwyn\Documents\Amaze Test\amaze_automation\Drivers\selenium-opera-driver-3.141.59.jar;C:\Users\Allwyn\Documents\Amaze Test\amaze_automation\Drive
java_class_path (initial): C:\Users\Allwyn\Documents\Amaze Test\amaze_automation\bin\keyword;C:\Users\Allwyn\Documents\Amaze Test\amaze_automation\bin\listener;C:\Users\Allwyn\Documents\Amaze Test\amaze_automation\bin\lib;C:\Users\Allwyn\Documents\Amaze Test\amaze_automation\bin\groovy;C:\Users\Allwyn\Documents\Amaze Test\amaze_automation\bin;C:\Users\Allwyn\Downloads\Compressed\Katalon_Studio\Katalon_Studio_Windows_64-5.8.0\plugins\com.kms.katalon.core_1.0.0.202012231052.jar;C:\Users\Allwyn\Downloads\Compressed\Katalon_Studio\Katalon_Studio_Windows_64-5.8.0\configuration\resources\lib\aalto-xml-1.0.0.jar;C:\Users\Allwyn\Downloads\Compressed\Katalon_Studio\Katalon_Studio_Windows_64-5.8.0\configuration\resources\lib\aspectjweaver-1.9.1.jar;C:\Users\Allwyn\Downloads\Compressed\Katalon_Studio\Katalon_Studio_Windows_64-5.8.0\configuration\resources\lib\bcpkix-jdk15on-1.64.jar;C:\Users\Allwyn\Downloads\Compressed\Katalon_Studio\Katalon_Studio_Windows_64-5.8.0\configuration\resources\lib\bcprov-jdk15on-1.64.jar;C:\Users\Allwyn\Downloads\Compressed\Katalon_Studio\Katalon_Studio_Windows_64-5.8.0\configuration\resources\lib\browsermob-core-2.1.5.jar;C:\Users\Allwyn\Downloads\Compressed\Katalon_Studio\Katalon_Studio_Windows_64-5.8.0\configuration\resources\lib\cglib-3.2.10.jar;C:\Users\Allwyn\Downloads\Compressed\Katalon_Studio\Katalon_Studio_Windows_64-5.8.0\configuration\resources\lib\commons-codec-1.10.jar;C:\Users\Allwyn\Downloads\Compressed\Katalon_Studio\Katalon_Studio_Windows_64-5.8.0\configuration\resources\lib\commons-collections4-4.1.jar;C:\Users\Allwyn\Downloads\Compressed\Katalon_Studio\Katalon_Studio_Windows_64-5.8.0\configuration\resources\lib\commons-validator-1.6.jar;C:\Users\Allwyn\Downloads\Compressed\Katalon_Studio\Katalon_Studio_Windows_64-5.8.0\configuration\resources\lib\curvesapi-1.04.jar;C:\Users\Allwyn\Downloads\Compressed\Katalon_Studio\Katalon_Studio_Windows_64-5.8.0\configuration\resources\lib\dnsjava-2.1.8.jar;C:\Users\Allwyn\Downloads\Compresse
Launcher Type: SUN_STANDARD

Environment Variables:
JAVA_HOME=C:\Program Files\Java\jdk1.8.0_171
USERNAME=Allwyn
OS=Windows_NT
PROCESSOR_IDENTIFIER=Intel64 Family 6 Model 61 Stepping 4, GenuineIntel



---------------  S Y S T E M  ---------------

OS: Windows 10.0 , 64 bit Build 19041 (10.0.19041.1202)

CPU:total 4 (initial active 4) (2 cores per cpu, 2 threads per core) family 6 model 61 stepping 4, cmov, cx8, fxsr, mmx, sse, sse2, sse3, ssse3, sse4.1, sse4.2, popcnt, avx, avx2, aes, clmul, erms, 3dnowpref, lzcnt, ht, tsc, tscinvbit, bmi1, bmi2, adx

Memory: 4k page, physical 8301964k(1024048k free), swap 10256780k(448k free)

vm_info: Java HotSpot(TM) 64-Bit Server VM (25.181-b13) for windows-amd64 JRE (1.8.0_181-b13), built on Jul  7 2018 04:01:33 by "java_re" with MS VC++ 10.0 (VS2010)

time: Mon Oct 11 12:13:00 2021
elapsed time: 23 seconds (0d 0h 0m 23s)

